{ "data": [
{"id": 1241830233101275137, "conversation_id": "1241830233101275137", "created_at": 1584910374000, "date": "2020-03-23", "time": "04:52:54", "timezone": "Malay Peninsula Standard Time", "user_id": 2178775035, "username": "mvankerkhove", "name": "Maria Van Kerkhove", "place": "", "tweet": "#COVID19 is not airborne\n\n#COVID19 spreads via droplet & contact transmission\n\nFor #HCW, @WHO has always recommended droplet precautions, except when preforming aerosol generating procedures, where we recommend airborne precautions\n\nSee here:  https://www.who.int/publications-detail/infection-prevention-and-control-during-health-care-when-novel-coronavirus-(ncov)-infection-is-suspected-20200125 … pic.twitter.com/6lEtXrwWoC", "mentions": ["who"], "urls": ["https://www.who.int/publications-detail/infection-prevention-and-control-during-health-care-when-novel-coronavirus-(ncov)-infection-is-suspected-20200125"], "photos": [], "replies_count": 1, "retweets_count": 8, "likes_count": 5, "hashtags": ["#covid19", "#covid19", "#hcw"], "cashtags": [], "link": "https://twitter.com/mvankerkhove/status/1241830233101275137", "retweet": false, "quote_url": "", "video": 1, "near": "", "geo": "", "source": "", "user_rt_id": "", "user_rt": "", "retweet_id": "", "reply_to": [{"user_id": "2178775035", "username": "mvankerkhove"}, {"user_id": "14499829", "username": "WHO"}], "retweet_date": "", "translate": "#COVID19 is not airborne\n\n#COVID19 spreads via droplet & contact transmission\n\nFor #HCW, @WHO has always recommended droplet precautions, except when preforming aerosol generating procedures, where we recommend airborne precautions\n\nSee here:  https://www.who.int/publications-detail/infection-prevention-and-control-during-health-care-when-novel-coronavirus-(ncov)-infection-is-suspected-20200125 … pic.twitter.com/6lEtXrwWoC", "trans_src": "en", "trans_dest": "en"}
,{"id": 1241830067216531458, "conversation_id": "1241830067216531458", "created_at": 1584910334000, "date": "2020-03-23", "time": "04:52:14", "timezone": "Malay Peninsula Standard Time", "user_id": 450667485, "username": "tropical_boy", "name": "🌺 𝗧𝗿𝗼𝗽𝗶𝗰𝗮𝗹 𝗕𝗼𝘆 🌺", "place": "", "tweet": "#COVIDー19 #COVID19 #coronavirus #Chloroquine\nℹ️ Communiqué de l'institut hospitalo universitaire méditerranée infection à Marseille pic.twitter.com/N8BZhYMp5a", "mentions": [], "urls": [], "photos": ["https://pbs.twimg.com/media/ETvdt7gXYAUKINV.jpg"], "replies_count": 0, "retweets_count": 6, "likes_count": 10, "hashtags": ["#covidー19", "#covid19", "#coronavirus", "#chloroquine"], "cashtags": [], "link": "https://twitter.com/tropical_boy/status/1241830067216531458", "retweet": false, "quote_url": "", "video": 0, "near": "", "geo": "", "source": "", "user_rt_id": "", "user_rt": "", "retweet_id": "", "reply_to": [{"user_id": "450667485", "username": "tropical_boy"}], "retweet_date": "", "translate": "#COVID ー 19 # COVID19 #coronavirus #Chloroquine\nℹ️ Press release from the Mediterranean university hospital infection institute in Marseille pic.twitter.com/N8BZhYMp5a", "trans_src": "fr", "trans_dest": "en"}
,{"id": 1241830040838508550, "conversation_id": "1241830040838508550", "created_at": 1584910328000, "date": "2020-03-23", "time": "04:52:08", "timezone": "Malay Peninsula Standard Time", "user_id": 1216455968105648129, "username": "khurramdehwar", "name": "Malik Khurram Khan Dehwar", "place": "", "tweet": "Civilian Supremacy eventually had to call upon the military, for being a strong, disciplined, incorruptible institution.\nTo save the day & help the govt impose a lockdown in #Pakistan to fight the highly contagious #COVID19.\n\n#PakArmy is here to serve! pic.twitter.com/1Z7umOWhdn", "mentions": [], "urls": [], "photos": [], "replies_count": 0, "retweets_count": 1, "likes_count": 5, "hashtags": ["#pakistan", "#covid19", "#pakarmy"], "cashtags": [], "link": "https://twitter.com/KhurramDehwar/status/1241830040838508550", "retweet": false, "quote_url": "", "video": 1, "near": "", "geo": "", "source": "", "user_rt_id": "", "user_rt": "", "retweet_id": "", "reply_to": [{"user_id": "1216455968105648129", "username": "KhurramDehwar"}], "retweet_date": "", "translate": "Civilian Supremacy eventually had to call upon the military, for being a strong, disciplined, incorruptible institution.\nTo save the day & help the govt impose a lockdown in #Pakistan to fight the highly contagious #COVID19.\n\n#PakArmy is here to serve! pic.twitter.com/1Z7umOWhdn", "trans_src": "en", "trans_dest": "en"}
,{"id": 1241829959716368384, "conversation_id": "1241829959716368384", "created_at": 1584910309000, "date": "2020-03-23", "time": "04:51:49", "timezone": "Malay Peninsula Standard Time", "user_id": 173813711, "username": "michaeldubron", "name": "Michael Dubron", "place": "", "tweet": "Completed a wellness check on hikers in the @Angeles_NF @CHPsouthern appears lots of Angelenos keeping #SocialDistancing enjoying the nice weather before #LARain #WeCanDoThis #COVID19 #CoronaVirus @LACOFD Be safe & prepared while hiking. pic.twitter.com/rRMVSoRpXb", "mentions": ["angeles_nf", "chpsouthern", "lacofd"], "urls": [], "photos": [], "replies_count": 0, "retweets_count": 3, "likes_count": 9, "hashtags": ["#socialdistancing", "#larain", "#wecandothis", "#covid19", "#coronavirus"], "cashtags": [], "link": "https://twitter.com/MichaelDubron/status/1241829959716368384", "retweet": false, "quote_url": "", "video": 1, "near": "", "geo": "", "source": "", "user_rt_id": "", "user_rt": "", "retweet_id": "", "reply_to": [{"user_id": "173813711", "username": "MichaelDubron"}, {"user_id": "606625312", "username": "Angeles_NF"}, {"user_id": "59378077", "username": "CHPsouthern"}, {"user_id": "308751479", "username": "LACOFD"}], "retweet_date": "", "translate": "Completed a wellness check on hikers in the @Angeles_NF @CHPsouthern appears lots of Angelenos keeping #SocialDistancing enjoying the nice weather before #LARain #WeCanDoThis #COVID19 #CoronaVirus @LACOFD Be safe & prepared while hiking. pic.twitter.com/rRMVSoRpXb", "trans_src": "en", "trans_dest": "en"}
,{"id": 1241829936148578305, "conversation_id": "1241829936148578305", "created_at": 1584910303000, "date": "2020-03-23", "time": "04:51:43", "timezone": "Malay Peninsula Standard Time", "user_id": 252265794, "username": "timparent", "name": "Tim Parent", "place": "", "tweet": "As the #COVID19 situation continues to develop in the days, weeks and months ahead, @660NEWS is committed to delivering only the FACTS from RELIABLE SOURCES. It's our responsibility to you, our listener, and we don't take that lightly. In times like these, #FactsMatter", "mentions": ["660news"], "urls": [], "photos": [], "replies_count": 1, "retweets_count": 4, "likes_count": 9, "hashtags": ["#covid19", "#factsmatter"], "cashtags": [], "link": "https://twitter.com/timparent/status/1241829936148578305", "retweet": false, "quote_url": "", "video": 0, "near": "", "geo": "", "source": "", "user_rt_id": "", "user_rt": "", "retweet_id": "", "reply_to": [{"user_id": "252265794", "username": "timparent"}, {"user_id": "18982486", "username": "660NEWS"}], "retweet_date": "", "translate": "As the #COVID19 situation continues to develop in the days, weeks and months ahead, @660NEWS is committed to delivering only the FACTS from RELIABLE SOURCES. It's our responsibility to you, our listener, and we don't take that lightly. In times like these, #FactsMatter", "trans_src": "en", "trans_dest": "en"}
,{"id": 1241829901675741184, "conversation_id": "1241829901675741184", "created_at": 1584910295000, "date": "2020-03-23", "time": "04:51:35", "timezone": "Malay Peninsula Standard Time", "user_id": 847921285065842690, "username": "heysciencesam", "name": "🔬Samantha Yammine, PhD (aka Science Sam)", "place": "", "tweet": "Over the past 3 months, I've created & shared 100s of tweets, instagram stories & posts, and Tik Tok videos in an attempt to make useful information about #COVID19 more accessible.\n\nI compiled it all on my website here:  https://www.samanthayammine.com/covid19 \n\nPls share if you find it helpful!", "mentions": [], "urls": ["https://www.samanthayammine.com/covid19"], "photos": [], "replies_count": 0, "retweets_count": 1, "likes_count": 4, "hashtags": ["#covid19"], "cashtags": [], "link": "https://twitter.com/heysciencesam/status/1241829901675741184", "retweet": false, "quote_url": "", "video": 0, "near": "", "geo": "", "source": "", "user_rt_id": "", "user_rt": "", "retweet_id": "", "reply_to": [{"user_id": "847921285065842690", "username": "heysciencesam"}], "retweet_date": "", "translate": "Over the past 3 months, I've created & shared 100s of tweets, instagram stories & posts, and Tik Tok videos in an attempt to make useful information about #COVID19 more accessible.\n\nI compiled it all on my website here:  https://www.samanthayammine.com/covid19 \n\nPls share if you find it helpful!", "trans_src": "en", "trans_dest": "en"}
,{"id": 1241829873137696768, "conversation_id": "1241829873137696768", "created_at": 1584910288000, "date": "2020-03-23", "time": "04:51:28", "timezone": "Malay Peninsula Standard Time", "user_id": 319225490, "username": "mtl_ville", "name": "Ville de Montréal", "place": "", "tweet": "#COVID19 : Une nouvelle clinique de dépistage massif sans rendez-vous ouvrira ses portes à la Place des Festivals ce lundi.  https://twitter.com/santemontreal/status/1241790178685071360 …", "mentions": [], "urls": ["https://twitter.com/santemontreal/status/1241790178685071360"], "photos": [], "replies_count": 0, "retweets_count": 3, "likes_count": 4, "hashtags": ["#covid19"], "cashtags": [], "link": "https://twitter.com/MTL_Ville/status/1241829873137696768", "retweet": false, "quote_url": "https://twitter.com/santemontreal/status/1241790178685071360", "video": 0, "near": "", "geo": "", "source": "", "user_rt_id": "", "user_rt": "", "retweet_id": "", "reply_to": [{"user_id": "319225490", "username": "MTL_Ville"}], "retweet_date": "", "translate": "# COVID19: A new massive walk-in screening clinic will open at Place des Festivals this Monday. https://twitter.com/santemontreal/status/1241790178685071360…", "trans_src": "fr", "trans_dest": "en"}
,{"id": 1241829863151067136, "conversation_id": "1241829863151067136", "created_at": 1584910286000, "date": "2020-03-23", "time": "04:51:26", "timezone": "Malay Peninsula Standard Time", "user_id": 871192115975507968, "username": "electlindajack", "name": "Linda Jack", "place": "", "tweet": "Why was the damned Senate gym OPEN during a pandemic?  Ours are closed and we’re in backwards Florida. #BeSmarter #COVID19  https://twitter.com/renato_mariotti/status/1241804108241264640 …", "mentions": [], "urls": ["https://twitter.com/renato_mariotti/status/1241804108241264640"], "photos": [], "replies_count": 0, "retweets_count": 0, "likes_count": 7, "hashtags": ["#besmarter", "#covid19"], "cashtags": [], "link": "https://twitter.com/ElectLindaJack/status/1241829863151067136", "retweet": false, "quote_url": "https://twitter.com/renato_mariotti/status/1241804108241264640", "video": 0, "near": "", "geo": "", "source": "", "user_rt_id": "", "user_rt": "", "retweet_id": "", "reply_to": [{"user_id": "871192115975507968", "username": "ElectLindaJack"}], "retweet_date": "", "translate": "Why was the damned Senate gym OPEN during a pandemic?  Ours are closed and we’re in backwards Florida. #BeSmarter #COVID19  https://twitter.com/renato_mariotti/status/1241804108241264640 …", "trans_src": "en", "trans_dest": "en"}
,{"id": 1241829838077321216, "conversation_id": "1241829838077321216", "created_at": 1584910280000, "date": "2020-03-23", "time": "04:51:20", "timezone": "Malay Peninsula Standard Time", "user_id": 1704646470, "username": "mirandayaver", "name": "Miranda Yaver", "place": "", "tweet": "If you're waiting for #covid19 test results, do NOT be around other people. \n\nIt doesn't matter if you're *pretty sure* that it's the flu. It doesn't matter if results take time. It doesn't matter if you're inconvenienced. \n\nIt's not about you. It's about protecting public health", "mentions": [], "urls": [], "photos": [], "replies_count": 1, "retweets_count": 4, "likes_count": 9, "hashtags": ["#covid19"], "cashtags": [], "link": "https://twitter.com/mirandayaver/status/1241829838077321216", "retweet": false, "quote_url": "", "video": 0, "near": "", "geo": "", "source": "", "user_rt_id": "", "user_rt": "", "retweet_id": "", "reply_to": [{"user_id": "1704646470", "username": "mirandayaver"}], "retweet_date": "", "translate": "If you're waiting for #covid19 test results, do NOT be around other people. \n\nIt doesn't matter if you're *pretty sure* that it's the flu. It doesn't matter if results take time. It doesn't matter if you're inconvenienced. \n\nIt's not about you. It's about protecting public health", "trans_src": "en", "trans_dest": "en"}
,{"id": 1241829830531993600, "conversation_id": "1241829830531993600", "created_at": 1584910278000, "date": "2020-03-23", "time": "04:51:18", "timezone": "Malay Peninsula Standard Time", "user_id": 881974187589603328, "username": "annaforflorida", "name": "Rep. Anna V. Eskamani 🔨", "place": "", "tweet": "Florida Lawmakers will be hopping on a call w/@GovRonDeSantis staff TONIGHT at 6:30pm. Please retweet if you want FL to enact a shelter in place requirement to prevent the spread #COVID19! \n\n#DeSantis #FloridaLockDown #Coronavirus", "mentions": ["govrondesantis"], "urls": [], "photos": [], "replies_count": 0, "retweets_count": 22, "likes_count": 18, "hashtags": ["#covid19", "#desantis", "#floridalockdown", "#coronavirus"], "cashtags": [], "link": "https://twitter.com/AnnaForFlorida/status/1241829830531993600", "retweet": false, "quote_url": "", "video": 0, "near": "", "geo": "", "source": "", "user_rt_id": "", "user_rt": "", "retweet_id": "", "reply_to": [{"user_id": "881974187589603328", "username": "AnnaForFlorida"}, {"user_id": "1058807868", "username": "GovRonDeSantis"}], "retweet_date": "", "translate": "Florida Lawmakers will be hopping on a call w/@GovRonDeSantis staff TONIGHT at 6:30pm. Please retweet if you want FL to enact a shelter in place requirement to prevent the spread #COVID19! \n\n#DeSantis #FloridaLockDown #Coronavirus", "trans_src": "en", "trans_dest": "en"}
,{"id": 1241829780254834693, "conversation_id": "1241829780254834693", "created_at": 1584910266000, "date": "2020-03-23", "time": "04:51:06", "timezone": "Malay Peninsula Standard Time", "user_id": 2271884653, "username": "drekstrom", "name": "Jonas Ekström", "place": "", "tweet": "Bra insats av statsepidemiolog Anders Tegnell i kvällens @svtagenda! Folkhälsomyndigheten under @CarlsonJFoHM gör ett utmärkt jobb i denna extremt pressande situation. #COVID19 #svmed #CoronaVirusSverige", "mentions": ["svtagenda", "carlsonjfohm"], "urls": [], "photos": [], "replies_count": 0, "retweets_count": 0, "likes_count": 5, "hashtags": ["#covid19", "#svmed", "#coronavirussverige"], "cashtags": [], "link": "https://twitter.com/DrEkstrom/status/1241829780254834693", "retweet": false, "quote_url": "", "video": 0, "near": "", "geo": "", "source": "", "user_rt_id": "", "user_rt": "", "retweet_id": "", "reply_to": [{"user_id": "2271884653", "username": "DrEkstrom"}, {"user_id": "2320591650", "username": "svtagenda"}, {"user_id": "426598892", "username": "CarlsonJFoHM"}], "retweet_date": "", "translate": "Good contribution by state epidemiologist Anders Tegnell in tonight's @svtagenda! The Public Health Authority under @CarlsonJFoHM does an excellent job in this extremely pressing situation. # COVID19 #svmed #CoronaVirusSweden", "trans_src": "sv", "trans_dest": "en"}
,{"id": 1241829779961196553, "conversation_id": "1241829779961196553", "created_at": 1584910266000, "date": "2020-03-23", "time": "04:51:06", "timezone": "Malay Peninsula Standard Time", "user_id": 45842047, "username": "spin1038", "name": "SPIN 1038", "place": "", "tweet": "Just in: McDonald’s have annouced they’re to close their UK and Ireland branches from 7pm tomorrow night #COVID19  https://twitter.com/mcdonaldsuk/status/1241824519280566274 …", "mentions": [], "urls": ["https://twitter.com/mcdonaldsuk/status/1241824519280566274"], "photos": [], "replies_count": 0, "retweets_count": 3, "likes_count": 8, "hashtags": ["#covid19"], "cashtags": [], "link": "https://twitter.com/spin1038/status/1241829779961196553", "retweet": false, "quote_url": "https://twitter.com/McDonaldsUK/status/1241824519280566274", "video": 0, "near": "", "geo": "", "source": "", "user_rt_id": "", "user_rt": "", "retweet_id": "", "reply_to": [{"user_id": "45842047", "username": "spin1038"}], "retweet_date": "", "translate": "Just in: McDonald’s have annouced they’re to close their UK and Ireland branches from 7pm tomorrow night #COVID19  https://twitter.com/mcdonaldsuk/status/1241824519280566274 …", "trans_src": "en", "trans_dest": "en"}
,{"id": 1241829764920422400, "conversation_id": "1241829764920422400", "created_at": 1584910262000, "date": "2020-03-23", "time": "04:51:02", "timezone": "Malay Peninsula Standard Time", "user_id": 40633349, "username": "espoirsdufoot", "name": "EspoirsduFootball", "place": "", "tweet": "💖 Plusieurs footballeurs m'ont contacté. Ils sont sensibles à la détresse de français bloqués à l'étranger et qui ne peuvent pas ou difficilement rentrer en France. Ils se proposent de les aider, financièrement et/ou hébergement. Contact en DM SVP. Merci de partager 🙏\n#COVID19", "mentions": [], "urls": [], "photos": [], "replies_count": 1, "retweets_count": 14, "likes_count": 14, "hashtags": ["#covid19"], "cashtags": [], "link": "https://twitter.com/EspoirsduFoot/status/1241829764920422400", "retweet": false, "quote_url": "", "video": 0, "near": "", "geo": "", "source": "", "user_rt_id": "", "user_rt": "", "retweet_id": "", "reply_to": [{"user_id": "40633349", "username": "EspoirsduFoot"}], "retweet_date": "", "translate": "💖 Several footballers contacted me. They are sensitive to the distress of French people stranded abroad and who cannot or hardly return to France. They offer to help them, financially and / or with accommodation. Contact in DM please. Thanks for sharing 🙏\n# COVID19", "trans_src": "fr", "trans_dest": "en"}
,{"id": 1241829716258181126, "conversation_id": "1241829716258181126", "created_at": 1584910251000, "date": "2020-03-23", "time": "04:50:51", "timezone": "Malay Peninsula Standard Time", "user_id": 534563976, "username": "kirkdborne", "name": "Kirk Borne", "place": "", "tweet": ".@STMath aims to ensure that all students are mathematically equipped to solve the world’s most challenging problem, including #COVIDー19:  https://www.stmath.com/coronavirus \n———\n#STEM #mathematics #DataScience #DataLiteracy #coronavirus #COVID19", "mentions": ["stmath"], "urls": ["https://www.stmath.com/coronavirus"], "photos": [], "replies_count": 0, "retweets_count": 1, "likes_count": 4, "hashtags": ["#covidー19", "#stem", "#mathematics", "#datascience", "#dataliteracy", "#coronavirus", "#covid19"], "cashtags": [], "link": "https://twitter.com/KirkDBorne/status/1241829716258181126", "retweet": false, "quote_url": "", "video": 0, "near": "", "geo": "", "source": "", "user_rt_id": "", "user_rt": "", "retweet_id": "", "reply_to": [{"user_id": "534563976", "username": "KirkDBorne"}, {"user_id": "620440938", "username": "STMath"}], "retweet_date": "", "translate": ".@STMath aims to ensure that all students are mathematically equipped to solve the world’s most challenging problem, including #COVIDー19:  https://www.stmath.com/coronavirus \n———\n#STEM #mathematics #DataScience #DataLiteracy #coronavirus #COVID19", "trans_src": "en", "trans_dest": "en"}
,{"id": 1241829705755627525, "conversation_id": "1241829705755627525", "created_at": 1584910248000, "date": "2020-03-23", "time": "04:50:48", "timezone": "Malay Peninsula Standard Time", "user_id": 65926370, "username": "claubgarcia", "name": "Claudia Garcia", "place": "", "tweet": "Il messaggio che sta passando all’estero e che mi fa arrabbiare è che la popolazione italiana non rispetta la quarentena. Questo è il problema o è il modo per nascondere il vero problema? Gli italiani, purtroppo, non hanno mai avuto una linea guida chiara dall’inizio. #covid19", "mentions": [], "urls": [], "photos": [], "replies_count": 3, "retweets_count": 1, "likes_count": 5, "hashtags": ["#covid19"], "cashtags": [], "link": "https://twitter.com/claubgarcia/status/1241829705755627525", "retweet": false, "quote_url": "", "video": 0, "near": "", "geo": "", "source": "", "user_rt_id": "", "user_rt": "", "retweet_id": "", "reply_to": [{"user_id": "65926370", "username": "claubgarcia"}], "retweet_date": "", "translate": "The message that is going abroad and that makes me angry is that the Italian population does not respect quarantine. Is this the problem or is it the way to hide the real problem? Unfortunately, Italians have never had a clear guideline since the beginning. # covid19", "trans_src": "it", "trans_dest": "en"}
,{"id": 1241829702735708163, "conversation_id": "1241829702735708163", "created_at": 1584910247000, "date": "2020-03-23", "time": "04:50:47", "timezone": "Malay Peninsula Standard Time", "user_id": 35541975, "username": "mvsnoticias", "name": "MVS Noticias", "place": "", "tweet": "ATENCIÓN 🚨\n\nPor primera vez en la historia, la #BasílicaDeGuadalupe cerró sus puertas a los fieles durante la homilía de este domingo, debido a la pandemia provocada por el #Covid19.\n\n https://mvsnoticias.com/noticias/destacado_app/basilica-de-guadalupe-cierra-sus-puertas-a-fieles-por-coronavirus/ …", "mentions": [], "urls": ["https://mvsnoticias.com/noticias/destacado_app/basilica-de-guadalupe-cierra-sus-puertas-a-fieles-por-coronavirus/"], "photos": [], "replies_count": 0, "retweets_count": 4, "likes_count": 8, "hashtags": ["#basílicadeguadalupe", "#covid19"], "cashtags": [], "link": "https://twitter.com/MVSNoticias/status/1241829702735708163", "retweet": false, "quote_url": "", "video": 0, "near": "", "geo": "", "source": "", "user_rt_id": "", "user_rt": "", "retweet_id": "", "reply_to": [{"user_id": "35541975", "username": "MVSNoticias"}], "retweet_date": "", "translate": "ATTENTION 🚨\n\nFor the first time in history, the # BasilicaDeGuadalupe closed its doors to the faithful during the homily this Sunday, due to the pandemic caused by # Covid19.\n\n https://mvsnoticias.com/noticias/destacado_app/basilica-de-guadalupe-cierra-sus-puertas-a-fieles-por-coronavirus/…", "trans_src": "es", "trans_dest": "en"}
,{"id": 1241829696679051267, "conversation_id": "1241680119539826690", "created_at": 1584910246000, "date": "2020-03-23", "time": "04:50:46", "timezone": "Malay Peninsula Standard Time", "user_id": 14594813, "username": "folha", "name": "Folha de S.Paulo", "place": "", "tweet": "Na pandemia de coronavírus, siga o estilo de vida dos gatos: fique em casa, durma e mantenha as patas limpas; leia mais no blog Gatices, por @Silvia_Haidar #coronavirus #coronavirusbrasil #covid19\n https://gatices.blogfolha.uol.com.br/2020/03/22/na-pandemia-de-coronavirus-siga-o-estilo-de-vida-dos-gatos-fique-em-casa-durma-e-mantenha-as-patas-limpas/?utm_source=twitter&utm_medium=social&utm_campaign=twfolha …", "mentions": ["silvia_haidar"], "urls": ["https://gatices.blogfolha.uol.com.br/2020/03/22/na-pandemia-de-coronavirus-siga-o-estilo-de-vida-dos-gatos-fique-em-casa-durma-e-mantenha-as-patas-limpas/?utm_source=twitter&utm_medium=social&utm_campaign=twfolha"], "photos": [], "replies_count": 3, "retweets_count": 35, "likes_count": 107, "hashtags": ["#coronavirus", "#coronavirusbrasil", "#covid19"], "cashtags": [], "link": "https://twitter.com/folha/status/1241829696679051267", "retweet": false, "quote_url": "", "video": 0, "near": "", "geo": "", "source": "", "user_rt_id": "", "user_rt": "", "retweet_id": "", "reply_to": [{"user_id": "14594813", "username": "folha"}, {"user_id": "72761866", "username": "Silvia_Haidar"}], "retweet_date": "", "translate": "In the coronavirus pandemic, follow the cats' lifestyle: stay at home, sleep and keep your feet clean; read more on the Gatices blog, by @Silvia_Haidar #coronavirus #coronavirusbrasil # covid19\n https://gatices.blogfolha.uol.com.br/2020/03/22/na-pandemia-de-coronavirus-siga-o-estilo-de-vida-dos-gatos-fique-em-casa-durma- e-keep-your-paws-clean /? utm_source = twitter & utm_medium = social & utm_campaign = twfolha…", "trans_src": "pt", "trans_dest": "en"}
,{"id": 1241829585018380290, "conversation_id": "1241829585018380290", "created_at": 1584910219000, "date": "2020-03-23", "time": "04:50:19", "timezone": "Malay Peninsula Standard Time", "user_id": 425122292, "username": "melissamvega", "name": "Melissa Vega", "place": "", "tweet": "When will  #COVID19 peak in Texas?  @TexasDSHS commissioner Dr. John Hellerstedt says we could be weeks or months away.  It depends on how well Texans obey social distancing order,\nif #flatteningthecurve works. #coronavirus #TEXAS #TexasStrong", "mentions": ["texasdshs"], "urls": [], "photos": [], "replies_count": 0, "retweets_count": 3, "likes_count": 5, "hashtags": ["#covid19", "#flatteningthecurve", "#coronavirus", "#texas", "#texasstrong"], "cashtags": [], "link": "https://twitter.com/melissamvega/status/1241829585018380290", "retweet": false, "quote_url": "", "video": 0, "near": "", "geo": "", "source": "", "user_rt_id": "", "user_rt": "", "retweet_id": "", "reply_to": [{"user_id": "425122292", "username": "melissamvega"}, {"user_id": "68412042", "username": "TexasDSHS"}], "retweet_date": "", "translate": "When will  #COVID19 peak in Texas?  @TexasDSHS commissioner Dr. John Hellerstedt says we could be weeks or months away.  It depends on how well Texans obey social distancing order,\nif #flatteningthecurve works. #coronavirus #TEXAS #TexasStrong", "trans_src": "en", "trans_dest": "en"}
,{"id": 1241829514092728320, "conversation_id": "1241829514092728320", "created_at": 1584910202000, "date": "2020-03-23", "time": "04:50:02", "timezone": "Malay Peninsula Standard Time", "user_id": 111157576, "username": "ecuadorenvivo", "name": "ecuadorenvivo", "place": "", "tweet": "Jaime Nebot  @jaimenebotsaadi  apoya #QuienSeSuma, campaña para que los fondos partidarios sean destinados a combatir el #COVID19  http://owl.li/mLqj30qrN3r  pic.twitter.com/fBLZzhZZhs", "mentions": ["jaimenebotsaadi"], "urls": ["http://owl.li/mLqj30qrN3r"], "photos": ["https://pbs.twimg.com/media/ETvdXL4WkAYRpMd.jpg"], "replies_count": 0, "retweets_count": 3, "likes_count": 10, "hashtags": ["#quiensesuma", "#covid19"], "cashtags": [], "link": "https://twitter.com/ecuadorenvivo/status/1241829514092728320", "retweet": false, "quote_url": "", "video": 0, "near": "", "geo": "", "source": "", "user_rt_id": "", "user_rt": "", "retweet_id": "", "reply_to": [{"user_id": "111157576", "username": "ecuadorenvivo"}, {"user_id": "24776620", "username": "jaimenebotsaadi"}], "retweet_date": "", "translate": "Jaime Nebot @jaimenebotsaadi supports #QuienSeSuma, campaign for partisan funds to be used to combat # COVID19 http://owl.li/mLqj30qrN3r pic.twitter.com/fBLZzhZZhs", "trans_src": "es", "trans_dest": "en"}
,{"id": 1241829509927784455, "conversation_id": "1241829509927784455", "created_at": 1584910201000, "date": "2020-03-23", "time": "04:50:01", "timezone": "Malay Peninsula Standard Time", "user_id": 877227753325645824, "username": "yourmarklubbers", "name": "Anonymous 🍀 #FreeAssange", "place": "", "tweet": "Due to the international Corona outbreak, the International Documentary Film Festival Amsterdam released over 300 documentaries on their site for free. So stay inside and learn!\n\n https://www.idfa.nl/nl/collectie/documentaires?page=1&filters%5BtvPrice%5D=Gratis …\n#Covid19 #Covid_19 #coronavirus #coronanederland #Coronavid19 #FreeMovies pic.twitter.com/bawaHsY1qM", "mentions": [], "urls": ["https://www.idfa.nl/nl/collectie/documentaires?page=1&filters%5BtvPrice%5D=Gratis"], "photos": ["https://pbs.twimg.com/media/ETvdHjjXYAAhw3q.jpg"], "replies_count": 1, "retweets_count": 12, "likes_count": 13, "hashtags": ["#covid19", "#covid_19", "#coronavirus", "#coronanederland", "#coronavid19", "#freemovies"], "cashtags": [], "link": "https://twitter.com/YourMarkLubbers/status/1241829509927784455", "retweet": false, "quote_url": "", "video": 0, "near": "", "geo": "", "source": "", "user_rt_id": "", "user_rt": "", "retweet_id": "", "reply_to": [{"user_id": "877227753325645824", "username": "YourMarkLubbers"}], "retweet_date": "", "translate": "Due to the international Corona outbreak, the International Documentary Film Festival Amsterdam released over 300 documentaries on their site for free. So stay inside and learn!\n\n https://www.idfa.nl/nl/collectie/documentaires?page=1&filters%5BtvPrice%5D=Gratis …\n#Covid19 #Covid_19 #coronavirus #coronanederland #Coronavid19 #FreeMovies pic.twitter.com/bawaHsY1qM", "trans_src": "en", "trans_dest": "en"}
,{"id": 1241829502927302656, "conversation_id": "1241829502927302656", "created_at": 1584910200000, "date": "2020-03-23", "time": "04:50:00", "timezone": "Malay Peninsula Standard Time", "user_id": 299693451, "username": "tvnnoticias", "name": "TVN Noticias", "place": "", "tweet": "#NoticiasTVN @MINSAPma indica que el audio que circula en redes sociales sobre el supuesto cierre de supermercados es falso e informa que el gobierno no tomará esta medida. Recuerda seguir informándose en las fuentes oficiales. #COVID19  https://twitter.com/MINSAPma/status/1241821786485948419 …", "mentions": ["minsapma"], "urls": ["https://twitter.com/MINSAPma/status/1241821786485948419"], "photos": [], "replies_count": 0, "retweets_count": 2, "likes_count": 6, "hashtags": ["#noticiastvn", "#covid19"], "cashtags": [], "link": "https://twitter.com/tvnnoticias/status/1241829502927302656", "retweet": false, "quote_url": "https://twitter.com/MINSAPma/status/1241821786485948419", "video": 0, "near": "", "geo": "", "source": "", "user_rt_id": "", "user_rt": "", "retweet_id": "", "reply_to": [{"user_id": "299693451", "username": "tvnnoticias"}, {"user_id": "197410009", "username": "MINSAPma"}], "retweet_date": "", "translate": "#NoticiasTVN @MINSAPma indicates that the audio circulating on social networks about the alleged closure of supermarkets is false and informs that the government will not take this measure. Remember to continue to inform yourself in official sources. # COVID19 https://twitter.com/MINSAPma/status/1241821786485948419…", "trans_src": "es", "trans_dest": "en"}
,{"id": 1241829501610442758, "conversation_id": "1241829501610442758", "created_at": 1584910199000, "date": "2020-03-23", "time": "04:49:59", "timezone": "Malay Peninsula Standard Time", "user_id": 857200002929762304, "username": "pp6mufc", "name": "‏ً", "place": "", "tweet": "2014 man 🤦‍♂️ #COVID19  pic.twitter.com/ZLDXe7Dwhk", "mentions": [], "urls": [], "photos": ["https://pbs.twimg.com/media/ETvdWMFXYAcL72i.jpg", "https://pbs.twimg.com/media/ETvdWMEXYAEY-Ma.jpg"], "replies_count": 0, "retweets_count": 0, "likes_count": 6, "hashtags": ["#covid19"], "cashtags": [], "link": "https://twitter.com/PP6MUFC/status/1241829501610442758", "retweet": false, "quote_url": "", "video": 0, "near": "", "geo": "", "source": "", "user_rt_id": "", "user_rt": "", "retweet_id": "", "reply_to": [{"user_id": "857200002929762304", "username": "PP6MUFC"}], "retweet_date": "", "translate": "2014 man 🤦‍♂️ #COVID19  pic.twitter.com/ZLDXe7Dwhk", "trans_src": "en", "trans_dest": "en"}
,{"id": 1241829487211356162, "conversation_id": "1241829487211356162", "created_at": 1584910196000, "date": "2020-03-23", "time": "04:49:56", "timezone": "Malay Peninsula Standard Time", "user_id": 96625583, "username": "sjokz", "name": "Eefje Depoortere", "place": "", "tweet": "ALSO SHOUTOUT TO THE BR TOURNEY FOR CHARITY AND FIGHT AGAINST #COVID19 #CBOLÃO https://www.twitch.tv/baiano ", "mentions": [], "urls": ["https://www.twitch.tv/baiano"], "photos": [], "replies_count": 142, "retweets_count": 370, "likes_count": 2558, "hashtags": ["#covid19", "#cbolão"], "cashtags": [], "link": "https://twitter.com/sjokz/status/1241829487211356162", "retweet": false, "quote_url": "", "video": 0, "near": "", "geo": "", "source": "", "user_rt_id": "", "user_rt": "", "retweet_id": "", "reply_to": [{"user_id": "96625583", "username": "sjokz"}], "retweet_date": "", "translate": "ALSO SHOUTOUT TO THE BR TOURNEY FOR CHARITY AND FIGHT AGAINST #COVID19 #CBOLÃO https://www.twitch.tv/baiano ", "trans_src": "en", "trans_dest": "en"}
,{"id": 1241829438335201280, "conversation_id": "1241829438335201280", "created_at": 1584910184000, "date": "2020-03-23", "time": "04:49:44", "timezone": "Malay Peninsula Standard Time", "user_id": 340418291, "username": "rulajebreal", "name": "Rula Jebreal", "place": "", "tweet": "Very popular Israeli Palestinian TV host Lucy Aharish was fired hours after she delivered an impassioned speech at a virtual protest against the suspension of Israel's parliament & Israel’s courts.\nNetanyahu using #COVID19 as pretext to subvert democracy. \n https://www.haaretz.com/israel-news/elections/.premium-tv-presenter-a-proud-arab-israeli-fired-by-broadcaster-hours-after-online-protest-1.8699683 …", "mentions": [], "urls": ["https://www.haaretz.com/israel-news/elections/.premium-tv-presenter-a-proud-arab-israeli-fired-by-broadcaster-hours-after-online-protest-1.8699683"], "photos": [], "replies_count": 1, "retweets_count": 16, "likes_count": 16, "hashtags": ["#covid19"], "cashtags": [], "link": "https://twitter.com/rulajebreal/status/1241829438335201280", "retweet": false, "quote_url": "", "video": 0, "near": "", "geo": "", "source": "", "user_rt_id": "", "user_rt": "", "retweet_id": "", "reply_to": [{"user_id": "340418291", "username": "rulajebreal"}], "retweet_date": "", "translate": "Very popular Israeli Palestinian TV host Lucy Aharish was fired hours after she delivered an impassioned speech at a virtual protest against the suspension of Israel's parliament & Israel’s courts.\nNetanyahu using #COVID19 as pretext to subvert democracy. \n https://www.haaretz.com/israel-news/elections/.premium-tv-presenter-a-proud-arab-israeli-fired-by-broadcaster-hours-after-online-protest-1.8699683 …", "trans_src": "en", "trans_dest": "en"}
,{"id": 1241829382525771776, "conversation_id": "1241829382525771776", "created_at": 1584910171000, "date": "2020-03-23", "time": "04:49:31", "timezone": "Malay Peninsula Standard Time", "user_id": 257164238, "username": "rositaflorio", "name": "Rossella Panarese", "place": "", "tweet": "“ Tre cose voglio dirvi: Ricerca, ricerca, ricerca”. Giuseppe Remuzzi  #COVID19 @chetempochefa", "mentions": ["chetempochefa"], "urls": [], "photos": [], "replies_count": 0, "retweets_count": 0, "likes_count": 4, "hashtags": ["#covid19"], "cashtags": [], "link": "https://twitter.com/Rositaflorio/status/1241829382525771776", "retweet": false, "quote_url": "", "video": 0, "near": "", "geo": "", "source": "", "user_rt_id": "", "user_rt": "", "retweet_id": "", "reply_to": [{"user_id": "257164238", "username": "Rositaflorio"}, {"user_id": "58748101", "username": "chetempochefa"}], "retweet_date": "", "translate": "\"Three things I want to tell you: Research, research, research\". Giuseppe Remuzzi # COVID19 @chetempochefa", "trans_src": "it", "trans_dest": "en"}
,{"id": 1241829366612492295, "conversation_id": "1241829366612492295", "created_at": 1584910167000, "date": "2020-03-23", "time": "04:49:27", "timezone": "Malay Peninsula Standard Time", "user_id": 71652085, "username": "idph", "name": "IDPH", "place": "", "tweet": "Real heroes don’t wear capes. THANK YOU to all of those on the frontlines. Let’s #StayAtHome to prevent our healthcare system from being overwhelmed. #COVID19 #TogetherAtHome pic.twitter.com/aQV29nDu4M", "mentions": [], "urls": [], "photos": ["https://pbs.twimg.com/media/ETvdOabXgAEmsBq.jpg"], "replies_count": 1, "retweets_count": 5, "likes_count": 10, "hashtags": ["#stayathome", "#covid19", "#togetherathome"], "cashtags": [], "link": "https://twitter.com/IDPH/status/1241829366612492295", "retweet": false, "quote_url": "", "video": 0, "near": "", "geo": "", "source": "", "user_rt_id": "", "user_rt": "", "retweet_id": "", "reply_to": [{"user_id": "71652085", "username": "IDPH"}], "retweet_date": "", "translate": "Real heroes don’t wear capes. THANK YOU to all of those on the frontlines. Let’s #StayAtHome to prevent our healthcare system from being overwhelmed. #COVID19 #TogetherAtHome pic.twitter.com/aQV29nDu4M", "trans_src": "en", "trans_dest": "en"}
,{"id": 1241829360136531977, "conversation_id": "1241829360136531977", "created_at": 1584910166000, "date": "2020-03-23", "time": "04:49:26", "timezone": "Malay Peninsula Standard Time", "user_id": 186108816, "username": "lanacionweb", "name": "Diario La Nación", "place": "", "tweet": "Nicolás Maduro informa que los casos confirmados por #covid19 en Venezuela están por estados:\n\n2 Anzoátegui\n2 Apure\n6 Aragua\n1 Cojedes\n19 Distrito Capital\n2 Falcón\n1 Lara\n1 Mérida\n30 Miranda\n1 Monagas\n1 Nueva Esparta\n1 Portuguesa\n1 Táchira\n8 Vargas\n1 Zulia", "mentions": [], "urls": [], "photos": [], "replies_count": 2, "retweets_count": 11, "likes_count": 5, "hashtags": ["#covid19"], "cashtags": [], "link": "https://twitter.com/lanacionweb/status/1241829360136531977", "retweet": false, "quote_url": "", "video": 0, "near": "", "geo": "", "source": "", "user_rt_id": "", "user_rt": "", "retweet_id": "", "reply_to": [{"user_id": "186108816", "username": "lanacionweb"}], "retweet_date": "", "translate": "Nicolás Maduro reports that the cases confirmed by # covid19 in Venezuela are by state:\n\n2 Anzoátegui\n2 Hurry\n6 Aragua\n1 Cojedes\n19 Capital District\n2 Falcon\n1 Lara\n1 Merida\n30 Miranda\n1 Monagas\n1 New Sparta\n1 Portuguese\n1 Táchira\n8 Vargas\n1 Zulia", "trans_src": "es", "trans_dest": "en"}
,{"id": 1241829338066141184, "conversation_id": "1241829338066141184", "created_at": 1584910160000, "date": "2020-03-23", "time": "04:49:20", "timezone": "Malay Peninsula Standard Time", "user_id": 1222673964419485696, "username": "coronavirusbra1", "name": "Coronavirus Brasil", "place": "", "tweet": "🔴 Urgente - A Secretaria da Saúde do Ceará confirma mais 13 casos de #coronavirus, totalizando 125 e 1571 no Brasil.\n\n#coronavirusbrasil #coronavirusnobrasil #nCoV19 #COVIDー19 #COVID19  pic.twitter.com/4xzHYPSILU", "mentions": [], "urls": [], "photos": [], "replies_count": 4, "retweets_count": 9, "likes_count": 38, "hashtags": ["#coronavirus", "#coronavirusbrasil", "#coronavirusnobrasil", "#ncov19", "#covidー19", "#covid19"], "cashtags": [], "link": "https://twitter.com/CoronavirusBra1/status/1241829338066141184", "retweet": false, "quote_url": "", "video": 1, "near": "", "geo": "", "source": "", "user_rt_id": "", "user_rt": "", "retweet_id": "", "reply_to": [{"user_id": "1222673964419485696", "username": "CoronavirusBra1"}], "retweet_date": "", "translate": "🔴 Urgent - The Ceará Department of Health confirms 13 more cases of #coronavirus, totaling 125 and 1571 in Brazil.\n\n#coronavirusbrasil #coronavirusnobrasil # nCoV19 #COVID ー 19 # COVID19 pic.twitter.com/4xzHYPSILU", "trans_src": "pt", "trans_dest": "en"}
,{"id": 1241829268495241227, "conversation_id": "1241829268495241227", "created_at": 1584910144000, "date": "2020-03-23", "time": "04:49:04", "timezone": "Malay Peninsula Standard Time", "user_id": 459998804, "username": "mzaziwillytuva", "name": "Mzazi Willy M. Tuva", "place": "", "tweet": "#StayAtHome and listen to the Bongo Hip Hop legend @MwanaFA this Monday on #MamboMseto 1pm-4pm @RadioCitizenFM he will be sharing his story and experience as he recovers from #COVID19 | Download the Citizen Radio App on Google Playstore and enjoy  wherever you are.\n\n#SundayLive pic.twitter.com/fz8NtcBMCx", "mentions": ["mwanafa", "radiocitizenfm"], "urls": [], "photos": [], "replies_count": 1, "retweets_count": 2, "likes_count": 5, "hashtags": ["#stayathome", "#mambomseto", "#covid19", "#sundaylive"], "cashtags": [], "link": "https://twitter.com/mzaziwillytuva/status/1241829268495241227", "retweet": false, "quote_url": "", "video": 1, "near": "", "geo": "", "source": "", "user_rt_id": "", "user_rt": "", "retweet_id": "", "reply_to": [{"user_id": "459998804", "username": "mzaziwillytuva"}, {"user_id": "82710700", "username": "MwanaFA"}, {"user_id": "632859279", "username": "RadioCitizenFM"}], "retweet_date": "", "translate": "#StayAtHome and listen to the Bongo Hip Hop legend @MwanaFA this Monday on #MamboMseto 1pm-4pm @RadioCitizenFM he will be sharing his story and experience as he recovers from #COVID19 | Download the Citizen Radio App on Google Playstore and enjoy  wherever you are.\n\n#SundayLive pic.twitter.com/fz8NtcBMCx", "trans_src": "en", "trans_dest": "en"}
,{"id": 1241829265190072320, "conversation_id": "1241829265190072320", "created_at": 1584910143000, "date": "2020-03-23", "time": "04:49:03", "timezone": "Malay Peninsula Standard Time", "user_id": 19377913, "username": "cityoftoronto", "name": "City of Toronto", "place": "", "tweet": "#SocialDistancing also applies to outdoor spaces including parks and playgrounds. Help protect yourself and others from #COVID19 by: \n•practising social distancing \n•always washing your hands before and after play •remembering that playground equipment is not sanitized  pic.twitter.com/i9UOL8mTrY", "mentions": [], "urls": [], "photos": ["https://pbs.twimg.com/media/ETvcz8UXYAENDEL.jpg"], "replies_count": 1, "retweets_count": 7, "likes_count": 14, "hashtags": ["#socialdistancing", "#covid19"], "cashtags": [], "link": "https://twitter.com/cityoftoronto/status/1241829265190072320", "retweet": false, "quote_url": "", "video": 0, "near": "", "geo": "", "source": "", "user_rt_id": "", "user_rt": "", "retweet_id": "", "reply_to": [{"user_id": "19377913", "username": "cityoftoronto"}], "retweet_date": "", "translate": "#SocialDistancing also applies to outdoor spaces including parks and playgrounds. Help protect yourself and others from #COVID19 by: \n•practising social distancing \n•always washing your hands before and after play •remembering that playground equipment is not sanitized  pic.twitter.com/i9UOL8mTrY", "trans_src": "en", "trans_dest": "en"}
,{"id": 1241829230327062528, "conversation_id": "1241829230327062528", "created_at": 1584910135000, "date": "2020-03-23", "time": "04:48:55", "timezone": "Malay Peninsula Standard Time", "user_id": 1325148752, "username": "semuspalmas", "name": "Saúde Palmas", "place": "", "tweet": "🦠#COVID19 | 😷Já estão sendo distribuídos aos serviços de emergência de Palmas os novos Equipamentos de Proteção Individual (EPI), para os atendimentos necessários.\n\nOs Kits chegaram a Palmas neste domingo, 22.\n\n📌Saiba +:  https://bit.ly/3bmFQJt  pic.twitter.com/EaLvgbrWq5", "mentions": [], "urls": ["https://bit.ly/3bmFQJt"], "photos": ["https://pbs.twimg.com/media/ETvdGE0XQAE8Fbm.jpg", "https://pbs.twimg.com/media/ETvdGSDXYAYAIUe.jpg"], "replies_count": 0, "retweets_count": 2, "likes_count": 5, "hashtags": ["#covid19"], "cashtags": [], "link": "https://twitter.com/semuspalmas/status/1241829230327062528", "retweet": false, "quote_url": "", "video": 0, "near": "", "geo": "", "source": "", "user_rt_id": "", "user_rt": "", "retweet_id": "", "reply_to": [{"user_id": "1325148752", "username": "semuspalmas"}], "retweet_date": "", "translate": "🦠 # COVID19 | 😷The new Personal Protective Equipment (PPE) is already being distributed to the emergency services of Palmas, for the necessary assistance.\n\nKits arrived in Palmas this Sunday, 22.\n\n📌Learn more: https://bit.ly/3bmFQJt pic.twitter.com/EaLvgbrWq5", "trans_src": "pt", "trans_dest": "en"}
,{"id": 1241829225151291394, "conversation_id": "1241829225151291394", "created_at": 1584910134000, "date": "2020-03-23", "time": "04:48:54", "timezone": "Malay Peninsula Standard Time", "user_id": 336770410, "username": "mrefis79", "name": "Mr. Efis", "place": "", "tweet": "Giuseppe Remuzzi sta dicendo che siamo ad un tanto così da capire come funziona il #covid19, e quindi dal poter contrattaccare.\n\n#CTCF\n#Coronavirus", "mentions": [], "urls": [], "photos": [], "replies_count": 0, "retweets_count": 1, "likes_count": 5, "hashtags": ["#covid19", "#ctcf", "#coronavirus"], "cashtags": [], "link": "https://twitter.com/MrEfis79/status/1241829225151291394", "retweet": false, "quote_url": "", "video": 0, "near": "", "geo": "", "source": "", "user_rt_id": "", "user_rt": "", "retweet_id": "", "reply_to": [{"user_id": "336770410", "username": "MrEfis79"}], "retweet_date": "", "translate": "Giuseppe Remuzzi is saying that we are at a point where we understand how # covid19 works, and therefore we can fight back.\n\n#CTCF\n#Coronavirus", "trans_src": "it", "trans_dest": "en"}
,{"id": 1241829203991040002, "conversation_id": "1241829203991040002", "created_at": 1584910128000, "date": "2020-03-23", "time": "04:48:48", "timezone": "Malay Peninsula Standard Time", "user_id": 15576967, "username": "robjh1", "name": "robjh1: The Conservative Black Cowboy", "place": "", "tweet": "The next time you hear the fake news media reports the president isn’t doing anything you remind him he is doing more than just talk. @realDonaldTrump #COVID19  pic.twitter.com/t6b5uen2qV", "mentions": ["realdonaldtrump"], "urls": [], "photos": ["https://pbs.twimg.com/media/ETvdES_WAAApxaT.jpg", "https://pbs.twimg.com/media/ETvdES_XsAEkQQY.jpg", "https://pbs.twimg.com/media/ETvdES7X0AED_i1.jpg", "https://pbs.twimg.com/media/ETvdETQWkAY2a71.jpg"], "replies_count": 1, "retweets_count": 8, "likes_count": 7, "hashtags": ["#covid19"], "cashtags": [], "link": "https://twitter.com/robjh1/status/1241829203991040002", "retweet": false, "quote_url": "", "video": 0, "near": "", "geo": "", "source": "", "user_rt_id": "", "user_rt": "", "retweet_id": "", "reply_to": [{"user_id": "15576967", "username": "robjh1"}, {"user_id": "25073877", "username": "realDonaldTrump"}], "retweet_date": "", "translate": "The next time you hear the fake news media reports the president isn’t doing anything you remind him he is doing more than just talk. @realDonaldTrump #COVID19  pic.twitter.com/t6b5uen2qV", "trans_src": "en", "trans_dest": "en"}
,{"id": 1241829193467547649, "conversation_id": "1241829193467547649", "created_at": 1584910126000, "date": "2020-03-23", "time": "04:48:46", "timezone": "Malay Peninsula Standard Time", "user_id": 512497424, "username": "bazgashtehh", "name": "بازگشته", "place": "", "tweet": "#COVID19 is just a virus \nBut @khamenei_ir is a cancer tumor for #Iran and world\n\n #KhameneiVirus", "mentions": ["khamenei_ir"], "urls": [], "photos": [], "replies_count": 0, "retweets_count": 6, "likes_count": 5, "hashtags": ["#covid19", "#iran", "#khameneivirus"], "cashtags": [], "link": "https://twitter.com/Bazgashtehh/status/1241829193467547649", "retweet": false, "quote_url": "", "video": 0, "near": "", "geo": "", "source": "", "user_rt_id": "", "user_rt": "", "retweet_id": "", "reply_to": [{"user_id": "512497424", "username": "Bazgashtehh"}, {"user_id": "27966935", "username": "khamenei_ir"}], "retweet_date": "", "translate": "#COVID19 is just a virus \nBut @khamenei_ir is a cancer tumor for #Iran and world\n\n #KhameneiVirus", "trans_src": "en", "trans_dest": "en"}
,{"id": 1241829186345545733, "conversation_id": "1241829186345545733", "created_at": 1584910124000, "date": "2020-03-23", "time": "04:48:44", "timezone": "Malay Peninsula Standard Time", "user_id": 26137474, "username": "briansnewheart", "name": "Brian Germann", "place": "", "tweet": "I know #SocialDistancing is frustrating\n\nI know you want to get out of the house\n\nIf you are not in an essential service industry, is your trip necessary?\n\nThis is about #flatteningthecurve\n\nThink about your family, friends, neighbors & co-workers\n\n#COVID19 can live on surfaces  pic.twitter.com/G0485sVEIb", "mentions": [], "urls": [], "photos": ["https://pbs.twimg.com/media/ETvdD5SXYAArB3g.jpg"], "replies_count": 0, "retweets_count": 6, "likes_count": 12, "hashtags": ["#socialdistancing", "#flatteningthecurve", "#covid19"], "cashtags": [], "link": "https://twitter.com/BriansNewHeart/status/1241829186345545733", "retweet": false, "quote_url": "", "video": 0, "near": "", "geo": "", "source": "", "user_rt_id": "", "user_rt": "", "retweet_id": "", "reply_to": [{"user_id": "26137474", "username": "BriansNewHeart"}], "retweet_date": "", "translate": "I know #SocialDistancing is frustrating\n\nI know you want to get out of the house\n\nIf you are not in an essential service industry, is your trip necessary?\n\nThis is about #flatteningthecurve\n\nThink about your family, friends, neighbors & co-workers\n\n#COVID19 can live on surfaces  pic.twitter.com/G0485sVEIb", "trans_src": "en", "trans_dest": "en"}
,{"id": 1241829185762611202, "conversation_id": "1241829185762611202", "created_at": 1584910124000, "date": "2020-03-23", "time": "04:48:44", "timezone": "Malay Peninsula Standard Time", "user_id": 886386871, "username": "astursalud", "name": "AsturSalud", "place": "", "tweet": "📌ACTUALIZACIÓN   #COVID19 #ASTURIAS\nCasos positivos: 594 (*)\nCasos activos: 561\nCuraciones: 21 (*)\nFallecimientos: 12 (*)\nA estas horas, \nHospitalizaciones en planta: 156\nUCI: 20\n(*)= datos acumulados \n@GobAsturias", "mentions": ["gobasturias"], "urls": [], "photos": [], "replies_count": 1, "retweets_count": 17, "likes_count": 5, "hashtags": ["#covid19", "#asturias"], "cashtags": [], "link": "https://twitter.com/astursalud/status/1241829185762611202", "retweet": false, "quote_url": "", "video": 0, "near": "", "geo": "", "source": "", "user_rt_id": "", "user_rt": "", "retweet_id": "", "reply_to": [{"user_id": "886386871", "username": "astursalud"}, {"user_id": "890838088443977728", "username": "GobAsturias"}], "retweet_date": "", "translate": "UPDATE # COVID19 #ASTURIAS\nPositive cases: 594 (*)\nActive cases: 561\nCures: 21 (*)\nDeaths: 12 (*)\nAt these hours,\nHospitalizations on the floor: 156\nICU: 20\n(*) = accumulated data\n@GobAsturias", "trans_src": "es", "trans_dest": "en"}
,{"id": 1241829185666121729, "conversation_id": "1241829185666121729", "created_at": 1584910124000, "date": "2020-03-23", "time": "04:48:44", "timezone": "Malay Peninsula Standard Time", "user_id": 1146021318082609152, "username": "covid19_time", "name": "COVID-19 TIME", "place": "", "tweet": "#COVID19 ☣️ #USA 🇺🇸\n\nWashington DC se ha convertido en una \"ciudad fantasma\". pic.twitter.com/Nl9IBOvBgH", "mentions": [], "urls": [], "photos": ["https://pbs.twimg.com/media/ETvdDnGXsAAEbxO.jpg", "https://pbs.twimg.com/media/ETvdDnOWsAAkG6x.jpg", "https://pbs.twimg.com/media/ETvdDnMWAAAHzXg.jpg", "https://pbs.twimg.com/media/ETvdDnFWoAU9FeO.jpg"], "replies_count": 1, "retweets_count": 12, "likes_count": 21, "hashtags": ["#covid19", "#usa"], "cashtags": [], "link": "https://twitter.com/Covid19_Time/status/1241829185666121729", "retweet": false, "quote_url": "", "video": 0, "near": "", "geo": "", "source": "", "user_rt_id": "", "user_rt": "", "retweet_id": "", "reply_to": [{"user_id": "1146021318082609152", "username": "Covid19_Time"}], "retweet_date": "", "translate": "# COVID19 ☣️ #USA 🇺🇸\n\nWashington DC has become a \"ghost town\". pic.twitter.com/Nl9IBOvBgH", "trans_src": "es", "trans_dest": "en"}
,{"id": 1241829176920780801, "conversation_id": "1241829176920780801", "created_at": 1584910122000, "date": "2020-03-23", "time": "04:48:42", "timezone": "Malay Peninsula Standard Time", "user_id": 63383628, "username": "gilmcgowan", "name": "Gil McGowan", "place": "", "tweet": "Whatever Austria is doing, we should be doing, too. Follow Austria to #FlattenTheCuve and Denmark to save the economy. @telfordk @JustinTrudeau #COVID19 #cdnpoli #canlab #ableg https://twitter.com/tom_nuttall/status/1241791041512124416 …", "mentions": ["telfordk", "justintrudeau"], "urls": ["https://twitter.com/tom_nuttall/status/1241791041512124416"], "photos": [], "replies_count": 1, "retweets_count": 5, "likes_count": 9, "hashtags": ["#flattenthecuve", "#covid19", "#cdnpoli", "#canlab", "#ableg"], "cashtags": [], "link": "https://twitter.com/gilmcgowan/status/1241829176920780801", "retweet": false, "quote_url": "https://twitter.com/tom_nuttall/status/1241791041512124416", "video": 0, "near": "", "geo": "", "source": "", "user_rt_id": "", "user_rt": "", "retweet_id": "", "reply_to": [{"user_id": "63383628", "username": "gilmcgowan"}, {"user_id": "145647271", "username": "telfordk"}, {"user_id": "14260960", "username": "JustinTrudeau"}], "retweet_date": "", "translate": "Whatever Austria is doing, we should be doing, too. Follow Austria to #FlattenTheCuve and Denmark to save the economy. @telfordk @JustinTrudeau #COVID19 #cdnpoli #canlab #ableg https://twitter.com/tom_nuttall/status/1241791041512124416 …", "trans_src": "en", "trans_dest": "en"}
,{"id": 1241829156733804544, "conversation_id": "1241829156733804544", "created_at": 1584910117000, "date": "2020-03-23", "time": "04:48:37", "timezone": "Malay Peninsula Standard Time", "user_id": 1901298962, "username": "naija_pr", "name": "NaijaPR", "place": "", "tweet": "All the people defending that Buhari’s speech on #COVID19 seem to have forgotten that speech coherence is an important leadership skill.", "mentions": [], "urls": [], "photos": [], "replies_count": 1, "retweets_count": 7, "likes_count": 13, "hashtags": ["#covid19"], "cashtags": [], "link": "https://twitter.com/Naija_PR/status/1241829156733804544", "retweet": false, "quote_url": "", "video": 0, "near": "", "geo": "", "source": "", "user_rt_id": "", "user_rt": "", "retweet_id": "", "reply_to": [{"user_id": "1901298962", "username": "Naija_PR"}], "retweet_date": "", "translate": "All the people defending that Buhari’s speech on #COVID19 seem to have forgotten that speech coherence is an important leadership skill.", "trans_src": "en", "trans_dest": "en"}
,{"id": 1241829152183013376, "conversation_id": "1241829152183013376", "created_at": 1584910116000, "date": "2020-03-23", "time": "04:48:36", "timezone": "Malay Peninsula Standard Time", "user_id": 1044135596892069888, "username": "camillaainswor1", "name": "Camilla Ainsworth", "place": "", "tweet": "Feeling a lil glum this eve as I was supposed to be launching my new product and website tonight after months of hard work. If anything, this tumultuous time is teaching me that set backs only fuel the comeback and I am refining my resilience every day, as are we all❤️#covid19", "mentions": [], "urls": [], "photos": [], "replies_count": 3, "retweets_count": 0, "likes_count": 11, "hashtags": ["#covid19"], "cashtags": [], "link": "https://twitter.com/CamillaAinswor1/status/1241829152183013376", "retweet": false, "quote_url": "", "video": 0, "near": "", "geo": "", "source": "", "user_rt_id": "", "user_rt": "", "retweet_id": "", "reply_to": [{"user_id": "1044135596892069888", "username": "CamillaAinswor1"}], "retweet_date": "", "translate": "Feeling a lil glum this eve as I was supposed to be launching my new product and website tonight after months of hard work. If anything, this tumultuous time is teaching me that set backs only fuel the comeback and I am refining my resilience every day, as are we all❤️#covid19", "trans_src": "en", "trans_dest": "en"}

]}